﻿2019-07-22T12:13:31.3701297+10:00;VSTestExecutionThread;Info;SpecFlow+Runner execution started
2019-07-22T12:13:31.3701297+10:00;VSTestExecutionThread;Info;SpecFlow+Runner 3.0.352 in Framework clr40 in x86 mode execution started
2019-07-22T12:13:31.3701297+10:00;VSTestExecutionThread;Info;TestAdapter Location: C:\Users\niharikasikka\Documents\kim_smoke\bin\Debug\TechTalk.SpecRun.VisualStudio.TestAdapter.dll
2019-07-22T12:13:32.4221297+10:00;VSTestExecutionThread;Info;SpecRun: running tests in C:\Users\niharikasikka\Documents\kim_smoke\bin\Debug\KIM_Automation.dll
2019-07-22T12:13:32.4231279+10:00;VSTestExecutionThread;Info;Output folder configured to "C:\Users\niharikasikka\Documents\kim_smoke\bin\Debug\TestResults" (default)
2019-07-22T12:13:32.4231279+10:00;VSTestExecutionThread;Info;Profile: KIM_Automation
2019-07-22T12:13:32.5211298+10:00;VSTestExecutionThread;Info;Log file path: C:\Users\niharikasikka\Documents\kim_smoke\bin\Debug\TestResults\KIM_Automation_KIM_Automation_2019-07-22T121332.log
2019-07-22T12:13:32.5651298+10:00;Thread#8;Info;Checking license
2019-07-22T12:13:32.6371266+10:00;Thread#8;Info;License check completed
2019-07-22T12:13:32.6371266+10:00;Thread#8;Info;starting test run
2019-07-22T12:13:32.6531295+10:00;Thread#8;Info;Discovering target: Default
2019-07-22T12:13:32.6531295+10:00;Thread#8;Info;Discovering tests from assembly: C:\Users\niharikasikka\Documents\kim_smoke\bin\Debug\KIM_Automation.dll
2019-07-22T12:13:32.7191284+10:00:Appdomain Disposed
2019-07-22T12:13:32.7191284+10:00;Thread#8;Info;Discovered tests from assembly: C:\Users\niharikasikka\Documents\kim_smoke\bin\Debug\KIM_Automation.dll
2019-07-22T12:13:32.7191284+10:00:Test Suite Dump
2019-07-22T12:13:32.7211265+10:00:#0: KIM_Automation/KIM_Automation - 
2019-07-22T12:13:32.7211265+10:00:#1: Default - 
2019-07-22T12:13:32.7211265+10:00:#2: KIM_Automation - 
2019-07-22T12:13:32.7211265+10:00:#3: SmokeTest04_AnnualConfirmation_Adjustments_Program_Sessional4yo - 
2019-07-22T12:13:32.7361303+10:00:#4: 01 AddService - TestAssembly:KIM_Automation/Feature:SmokeTest04_AnnualConfirmation_Adjustments_Program_Sessional4yo/Scenario:01+AddService
2019-07-22T12:13:32.7361303+10:00:#5: 02 Run KIM sharepoint to crm service - TestAssembly:KIM_Automation/Feature:SmokeTest04_AnnualConfirmation_Adjustments_Program_Sessional4yo/Scenario:02+Run+KIM+sharepoint+to+crm+service
2019-07-22T12:13:32.7361303+10:00:#6: 03 WaitScript, 120000 - TestAssembly:KIM_Automation/Feature:SmokeTest04_AnnualConfirmation_Adjustments_Program_Sessional4yo/Scenario:03+WaitScript%2c+120000
2019-07-22T12:13:32.7361303+10:00:#7: 04 KimCrm_NewService_RO_KimEditor, A Service - TestAssembly:KIM_Automation/Feature:SmokeTest04_AnnualConfirmation_Adjustments_Program_Sessional4yo/Scenario:04+KimCrm_NewService_RO_KimEditor%2c+A+Service
2019-07-22T12:13:32.7361303+10:00:#8: 05 KimCrm_NewService_RO_KimApprover, A Service - TestAssembly:KIM_Automation/Feature:SmokeTest04_AnnualConfirmation_Adjustments_Program_Sessional4yo/Scenario:05+KimCrm_NewService_RO_KimApprover%2c+A+Service
2019-07-22T12:13:32.7361303+10:00:#9: 06 RunJob2 - TestAssembly:KIM_Automation/Feature:SmokeTest04_AnnualConfirmation_Adjustments_Program_Sessional4yo/Scenario:06+RunJob2
2019-07-22T12:13:32.7361303+10:00:#10: 07 WaitScript, 240000 - TestAssembly:KIM_Automation/Feature:SmokeTest04_AnnualConfirmation_Adjustments_Program_Sessional4yo/Scenario:07+WaitScript%2c+240000
2019-07-22T12:13:32.7361303+10:00:#11: 08 VerifyService_AddTeacher, A Service - TestAssembly:KIM_Automation/Feature:SmokeTest04_AnnualConfirmation_Adjustments_Program_Sessional4yo/Scenario:08+VerifyService_AddTeacher%2c+A+Service
2019-07-22T12:13:32.7361303+10:00:#12: 09 AddEducator, A Service - TestAssembly:KIM_Automation/Feature:SmokeTest04_AnnualConfirmation_Adjustments_Program_Sessional4yo/Scenario:09+AddEducator%2c+A+Service
2019-07-22T12:13:32.7361303+10:00:#13: 10 AddProgram_Sessional_4yo, A Service - TestAssembly:KIM_Automation/Feature:SmokeTest04_AnnualConfirmation_Adjustments_Program_Sessional4yo/Scenario:10+AddProgram_Sessional_4yo%2c+A+Service
2019-07-22T12:13:32.7361303+10:00:#14: 11 Run YBSK wrapper job - TestAssembly:KIM_Automation/Feature:SmokeTest04_AnnualConfirmation_Adjustments_Program_Sessional4yo/Scenario:11+Run+YBSK+wrapper+job
2019-07-22T12:13:32.7361303+10:00:#15: 12 WaitScript, 300000 - TestAssembly:KIM_Automation/Feature:SmokeTest04_AnnualConfirmation_Adjustments_Program_Sessional4yo/Scenario:12+WaitScript%2c+300000
2019-07-22T12:13:32.7361303+10:00:#16: 13 AddEnrolment_YBSK_KFS, A Service - TestAssembly:KIM_Automation/Feature:SmokeTest04_AnnualConfirmation_Adjustments_Program_Sessional4yo/Scenario:13+AddEnrolment_YBSK_KFS%2c+A+Service
2019-07-22T12:13:32.7361303+10:00:#17: 14 AddEnrolment_ESKExten_CP, A Service - TestAssembly:KIM_Automation/Feature:SmokeTest04_AnnualConfirmation_Adjustments_Program_Sessional4yo/Scenario:14+AddEnrolment_ESKExten_CP%2c+A+Service
2019-07-22T12:13:32.7361303+10:00:#18: 15 AddEnrolments_YBSK, A Service - TestAssembly:KIM_Automation/Feature:SmokeTest04_AnnualConfirmation_Adjustments_Program_Sessional4yo/Scenario:15+AddEnrolments_YBSK%2c+A+Service
2019-07-22T12:13:32.7361303+10:00:#19: 16 Run YBSK wrapper job - TestAssembly:KIM_Automation/Feature:SmokeTest04_AnnualConfirmation_Adjustments_Program_Sessional4yo/Scenario:16+Run+YBSK+wrapper+job
2019-07-22T12:13:32.7361303+10:00:#20: 17 WaitScript, 900000 - TestAssembly:KIM_Automation/Feature:SmokeTest04_AnnualConfirmation_Adjustments_Program_Sessional4yo/Scenario:17+WaitScript%2c+900000
2019-07-22T12:13:32.7361303+10:00:#21: 18 RunJob2 - TestAssembly:KIM_Automation/Feature:SmokeTest04_AnnualConfirmation_Adjustments_Program_Sessional4yo/Scenario:18+RunJob2
2019-07-22T12:13:32.7361303+10:00:#22: 19 WaitScript, 180000 - TestAssembly:KIM_Automation/Feature:SmokeTest04_AnnualConfirmation_Adjustments_Program_Sessional4yo/Scenario:19+WaitScript%2c+180000
2019-07-22T12:13:32.7361303+10:00:#23: 20 AnnualConfirm_Sessional_4yo, Orange Group - TestAssembly:KIM_Automation/Feature:SmokeTest04_AnnualConfirmation_Adjustments_Program_Sessional4yo/Scenario:20+AnnualConfirm_Sessional_4yo%2c+Orange+Group
2019-07-22T12:13:32.7361303+10:00:#24: 21 Run Enrolment Confirmation job - TestAssembly:KIM_Automation/Feature:SmokeTest04_AnnualConfirmation_Adjustments_Program_Sessional4yo/Scenario:21+Run+Enrolment+Confirmation+job
2019-07-22T12:13:32.7361303+10:00:#25: 22 WaitScript, 300000 - TestAssembly:KIM_Automation/Feature:SmokeTest04_AnnualConfirmation_Adjustments_Program_Sessional4yo/Scenario:22+WaitScript%2c+300000
2019-07-22T12:13:32.7361303+10:00:#26: 23 KimCrmPreCommitments_ApprovePrecommitment, Orange Group - TestAssembly:KIM_Automation/Feature:SmokeTest04_AnnualConfirmation_Adjustments_Program_Sessional4yo/Scenario:23+KimCrmPreCommitments_ApprovePrecommitment%2c+Orange+Group
2019-07-22T12:13:32.7361303+10:00:#27: 24 Run KIM crm message to KIM sharepoint - TestAssembly:KIM_Automation/Feature:SmokeTest04_AnnualConfirmation_Adjustments_Program_Sessional4yo/Scenario:24+Run+KIM+crm+message+to+KIM+sharepoint
2019-07-22T12:13:32.7361303+10:00:#28: 25 WaitScript, 180000 - TestAssembly:KIM_Automation/Feature:SmokeTest04_AnnualConfirmation_Adjustments_Program_Sessional4yo/Scenario:25+WaitScript%2c+180000
2019-07-22T12:13:32.7361303+10:00:#29: 26 Adjustments_Available, Orange Group - TestAssembly:KIM_Automation/Feature:SmokeTest04_AnnualConfirmation_Adjustments_Program_Sessional4yo/Scenario:26+Adjustments_Available%2c+Orange+Group
2019-07-22T12:13:32.7361303+10:00:End: Test Suite Dump
2019-07-22T12:13:32.7771296+10:00:Thread#0:Scheduler: get next test for thread 0
2019-07-22T12:13:32.7801305+10:00:Thread#:Scheduler: testitem #4 from normal test queue 
2019-07-22T12:13:32.7801305+10:00:Thread#0:Scheduler: considering testitem #4 for thread 0
2019-07-22T12:13:32.7861296+10:00:Thread#0:TestItem#4:testItemMatchesCurrentTestThread:UnSpecific
2019-07-22T12:13:32.7861296+10:00:Thread#0:TestItem#4:runsOnOneOtherThreadSpecific:False
2019-07-22T12:13:32.7861296+10:00:Thread#0:TestItem#4:runsOnOneOtherThreadUnspecific:False
2019-07-22T12:13:32.7861296+10:00:Thread#0:Scheduler: using testitem #4 for thread 0
2019-07-22T12:13:32.7881300+10:00:Thread#0:Scheduler: Test #4 is scheduled for thread
2019-07-22T12:13:32.7891299+10:00:Thread#0:Scheduler: with testItemExecutionIndex 0
2019-07-22T12:13:32.7921297+10:00:Thread #0: creating new test thread executor for KIM_Automation, Version=1.0.0.0, Culture=neutral, PublicKeyToken=null (target: Default)
2019-07-22T12:13:32.7931294+10:00:Thread #0: Creating test assembly executor for execution model AppDomain
2019-07-22T12:13:32.7941286+10:00:Thread #0: Creating test assembly executor for execution model AppDomain
2019-07-22T12:13:32.7941286+10:00:using TechTalk.SpecRun.Framework.Execution.InProcess.InProcAppDomainTestAssemblyExecutorHost to execute tests
2019-07-22T12:13:32.8791301+10:00:Thread#0: Test #4/0 is started on thread #0
2019-07-22T12:13:33.1581285+10:00:Thread#0:T:-> Loading plugin C:\Users\niharikasikka\Documents\kim_smoke\bin\Debug\SpecRun.Runtime.SpecFlowPlugin.dll
2019-07-22T12:13:33.1851272+10:00:Thread#0:T:-> Using default config
2019-07-22T12:13:33.3031294+10:00:Thread#0:B:Given I navigate to Kim sharepoint aplication homepage
2019-07-22T12:13:40.0601313+10:00:Thread#0:T:done: SmokeKimSteps.GivenINavigateToKimSharepointAplicationHomepage() (6.6s)
2019-07-22T12:13:40.0631309+10:00:Thread#0:B:And I login using internal username and password
2019-07-22T12:13:40.0631309+10:00:Thread#0:T:done: SmokeKimSteps.GivenILoginUsingInternalUsernameAndPassword() (0.0s)
2019-07-22T12:13:40.0641309+10:00:Thread#0:B:When I press login button
2019-07-22T12:13:40.0641309+10:00:Thread#0:T:done: SmokeKimSteps.WhenIPressLoginButton() (0.0s)
2019-07-22T12:13:40.0651312+10:00:Thread#0:B:And I am logged in successfully
2019-07-22T12:13:40.3571281+10:00:Thread#0:T:done: SmokeKimSteps.WhenIAmLoggedInSuccessfully() (0.3s)
2019-07-22T12:13:40.3621306+10:00:Thread#0:B:And I click on service providers
2019-07-22T12:14:06.7846357+10:00:Thread#0:T:done: SmokeKimSteps.WhenIClickOnServiceProviders() (26.4s)
2019-07-22T12:14:06.7856364+10:00:Thread#0:B:And I search for an organisation and click on it
2019-07-22T12:14:15.6571555+10:00:Thread#0:T:done: SmokeKimSteps.WhenISearchForAnOrganisationAndClickOnIt() (8.9s)
2019-07-22T12:14:15.6731537+10:00:Thread#0:B:And I add a new service and fill in details and submit
2019-07-22T12:14:15.6741560+10:00:Thread#0:B:  --- table step argument ---
2019-07-22T12:14:15.6751559+10:00:Thread#0:B:  | Service Name | Date Commence | Unit Number     | Street          | Street Type | Suburb       | State | Postcode        | LGA Code         | Telephone  | Email                             | Title Emergency | Given Name Emergency | Family Name Emergency | Email Emergency    | Position Emergency | Telephone Emergency | Mobile Emergency | Quality Rating |
2019-07-22T12:14:15.6751559+10:00:Thread#0:B:  | A Service    | 16/07/2019    | <autogenerated> | <autogenerated> | ALLEY       | Monee Pondss | VIC   | <autogenerated> | Alpine (S) 20110 | 0469347455 | ligon.norhan.n@edumail.vic.gov.au | Mr              | Chris                | Hemsworth             | chris123@gmail.com | System             | 0469939394          | 0465557409       | Excellent      |
2019-07-22T12:15:07.6012479+10:00:Thread#0:T:error: Currently focused window has been closed.
2019-07-22T12:15:07.6032480+10:00:Thread#0:B:Then I verify that the service is added successfully
2019-07-22T12:15:07.6052479+10:00:Thread#0:T:skipped because of previous errors
2019-07-22T12:15:07.6052479+10:00:Thread#0:B:And I close the browser successfully
2019-07-22T12:15:07.6062466+10:00:Thread#0:T:skipped because of previous errors
2019-07-22T12:15:07.6555761+10:00:Thread#0:TestItem#4:Scheduler: reschedule tests for testitem #4
2019-07-22T12:15:07.6575759+10:00:Thread#0:Scheduler: get next test for thread 0
2019-07-22T12:15:07.6575759+10:00:Thread#:Scheduler: dequeuing a rescheduled testitem: #4
2019-07-22T12:15:07.6575759+10:00:Thread#0:Scheduler: considering testitem #4 for thread 0
2019-07-22T12:15:07.6575759+10:00:Thread#0:TestItem#4:testItemMatchesCurrentTestThread:UnSpecific
2019-07-22T12:15:07.6575759+10:00:Thread#0:TestItem#4:runsOnOneOtherThreadSpecific:False
2019-07-22T12:15:07.6575759+10:00:Thread#0:TestItem#4:runsOnOneOtherThreadUnspecific:False
2019-07-22T12:15:07.6575759+10:00:Thread#0:Scheduler: using testitem #4 for thread 0
2019-07-22T12:15:07.6575759+10:00:Thread#0:Scheduler: Test #4 is scheduled for thread
2019-07-22T12:15:07.6575759+10:00:Thread#0:Scheduler: with testItemExecutionIndex 1
2019-07-22T12:15:07.6706019+10:00:Thread#0: Test #4/0 is finished on thread #0 as Failed within 94.7894771 seconds
2019-07-22T12:15:07.6786410+10:00:Thread#0: Test #4/1 is started on thread #0
2019-07-22T12:15:07.6796709+10:00:Thread#0:B:Given I navigate to Kim sharepoint aplication homepage
