﻿2019-05-13T10:29:56.8923538+10:00;VSTestExecutionThread;Info;SpecFlow+Runner execution started
2019-05-13T10:29:56.8923538+10:00;VSTestExecutionThread;Info;SpecFlow+Runner 3.0.337 in Framework clr40 in x86 mode execution started
2019-05-13T10:29:56.8923538+10:00;VSTestExecutionThread;Info;TestAdapter Location: C:\Users\09946103\Downloads\kim_automation\packages\SpecRun.Runner.3.0.337\tools\net45\TechTalk.SpecRun.VisualStudio.TestAdapter.dll
2019-05-13T10:29:57.0334293+10:00;VSTestExecutionThread;Info;SpecRun: running tests in C:\Users\09946103\Downloads\kim_automation\KIM_Automation\bin\Debug\KIM_Automation.dll
2019-05-13T10:29:57.0344302+10:00;VSTestExecutionThread;Info;Output folder configured to "C:\Users\09946103\Downloads\kim_automation\TestResults" (default)
2019-05-13T10:29:57.0344302+10:00;VSTestExecutionThread;Info;Profile: KIM_Automation
2019-05-13T10:29:57.0674555+10:00;VSTestExecutionThread;Info;Log file path: C:\Users\09946103\Downloads\kim_automation\TestResults\KIM_Automation_KIM_Automation_2019-05-13T102957.log
2019-05-13T10:29:57.0794627+10:00;VSTestExecutionThread;Info;SpecFlow+Runner Evaluation Mode: Please purchase at http://www.specflow.org/plus to remove test execution delay.
2019-05-13T10:29:57.0884668+10:00;Thread#13;Info;Checking license
2019-05-13T10:29:57.1094809+10:00;Thread#13;Info;Evaluation mode: test execution starts in 8 seconds... (this delay is removed in the registered version)
2019-05-13T10:30:05.1105746+10:00;Thread#13;Info;Evaluation delay finished.
2019-05-13T10:30:05.1325610+10:00;Thread#13;Info;License check completed
2019-05-13T10:30:05.1345632+10:00;Thread#13;Info;starting test run
2019-05-13T10:30:05.1735882+10:00;Thread#13;Info;Discovering target: Default
2019-05-13T10:30:05.1755900+10:00;Thread#13;Info;Discovering tests from assembly: C:\Users\09946103\Downloads\kim_automation\KIM_Automation\bin\Debug\KIM_Automation.dll
2019-05-13T10:30:06.1496107+10:00:Appdomain Disposed
2019-05-13T10:30:06.1496107+10:00;Thread#13;Info;Discovered tests from assembly: C:\Users\09946103\Downloads\kim_automation\KIM_Automation\bin\Debug\KIM_Automation.dll
2019-05-13T10:30:06.1506250+10:00:Test Suite Dump
2019-05-13T10:30:06.1526201+10:00:#0: KIM_Automation/KIM_Automation - 
2019-05-13T10:30:06.1526201+10:00:#1: Default - 
2019-05-13T10:30:06.1526201+10:00:#2: KIM_Automation - 
2019-05-13T10:30:06.1526201+10:00:#3: Smoke Test - 
2019-05-13T10:30:06.2549995+10:00:#4: KIM end to end scenario - TestAssembly:KIM_Automation/Feature:Smoke+Test/Scenario:KIM+end+to+end+scenario
2019-05-13T10:30:06.2549995+10:00:End: Test Suite Dump
2019-05-13T10:30:06.2840399+10:00:Thread#0:Scheduler: get next test for thread 0
2019-05-13T10:30:06.2870413+10:00:Thread#:Scheduler: testitem #4 from normal test queue 
2019-05-13T10:30:06.2870413+10:00:Thread#0:Scheduler: considering testitem #4 for thread 0
2019-05-13T10:30:06.2920445+10:00:Thread#0:TestItem#4:testItemMatchesCurrentTestThread:UnSpecific
2019-05-13T10:30:06.2920445+10:00:Thread#0:TestItem#4:runsOnOneOtherThreadSpecific:False
2019-05-13T10:30:06.2920445+10:00:Thread#0:TestItem#4:runsOnOneOtherThreadUnspecific:False
2019-05-13T10:30:06.2920445+10:00:Thread#0:Scheduler: using testitem #4 for thread 0
2019-05-13T10:30:06.2940262+10:00:Thread#0:Scheduler: Test #4 is scheduled for thread
2019-05-13T10:30:06.2950262+10:00:Thread#0:Scheduler: with testItemExecutionIndex 0
2019-05-13T10:30:06.2980494+10:00:Thread #0: creating new test thread executor for KIM_Automation, Version=1.0.0.0, Culture=neutral, PublicKeyToken=null (target: Default)
2019-05-13T10:30:06.3000499+10:00:Thread #0: Creating test assembly executor for execution model AppDomain
2019-05-13T10:30:06.3000499+10:00:Thread #0: Creating test assembly executor for execution model AppDomain
2019-05-13T10:30:06.3010397+10:00:using TechTalk.SpecRun.Framework.Execution.InProcess.InProcAppDomainTestAssemblyExecutorHost to execute tests
2019-05-13T10:30:06.4961634+10:00:Thread#0: Test #4/0 is started on thread #0
2019-05-13T10:30:06.9824917+10:00:Thread#0:T:-> Loading plugin C:\Users\09946103\Downloads\kim_automation\KIM_Automation\bin\Debug\SpecRun.Runtime.SpecFlowPlugin.dll
2019-05-13T10:30:06.9924980+10:00:Thread#0:T:-> Using default config
2019-05-13T10:30:07.0725524+10:00:Thread#0:B:Given I navigate to Kim sharepoint aplication homepage
2019-05-13T10:30:23.5781825+10:00:Thread#0:T:done: SmokeKimSteps.GivenINavigateToKimSharepointAplicationHomepage() (16.3s)
2019-05-13T10:30:23.5801816+10:00:Thread#0:B:And I login using internal username and password
2019-05-13T10:30:33.9173746+10:00:Thread#0:T:done: SmokeKimSteps.GivenILoginUsingInternalUsernameAndPassword() (10.3s)
2019-05-13T10:30:33.9193817+10:00:Thread#0:B:When I press login button
2019-05-13T10:30:41.9544209+10:00:Thread#0:T:done: SmokeKimSteps.WhenIPressLoginButton() (8.0s)
2019-05-13T10:30:41.9553642+10:00:Thread#0:B:And I am logged in successfully
2019-05-13T10:30:47.1910172+10:00:Thread#0:T:done: SmokeKimSteps.WhenIAmLoggedInSuccessfully() (5.2s)
2019-05-13T10:30:47.2090307+10:00:Thread#0:B:And I click on service providers
2019-05-13T10:31:10.8616226+10:00:Thread#0:T:done: SmokeKimSteps.WhenIClickOnServiceProviders() (23.6s)
2019-05-13T10:31:10.8846398+10:00:Thread#0:B:And I search for an organisation and click on it
2019-05-13T10:31:13.8985725+10:00:Thread#0:T:done: SmokeKimSteps.WhenISearchForAnOrganisationAndClickOnIt() (3.0s)
2019-05-13T10:31:13.9115798+10:00:Thread#0:B:And I add a new service and fill in details and submit
2019-05-13T10:31:13.9165838+10:00:Thread#0:B:  --- table step argument ---
2019-05-13T10:31:13.9195861+10:00:Thread#0:B:  | Key                            | Value                               |
2019-05-13T10:31:13.9235888+10:00:Thread#0:B:  | Service Name                   | Moonee Kids Kindergarten            |
2019-05-13T10:31:13.9315925+10:00:Thread#0:B:  | Date Commence                  | 01/06/2019                          |
2019-05-13T10:31:13.9365961+10:00:Thread#0:B:  | Unit Number                    | 2                                   |
2019-05-13T10:31:13.9395984+10:00:Thread#0:B:  | Street                         | Hoddle Street                       |
2019-05-13T10:31:13.9446033+10:00:Thread#0:B:  | Street Type                    | Alley                               |
2019-05-13T10:31:13.9476051+10:00:Thread#0:B:  | Suburb                         | Essendon                            |
2019-05-13T10:31:13.9506056+10:00:Thread#0:B:  | State                          | VIC                                 |
2019-05-13T10:31:13.9546083+10:00:Thread#0:B:  | Postcode                       | 3040                                |
2019-05-13T10:31:13.9576106+10:00:Thread#0:B:  | LGA Code                       | Alpine (S) 20110                    |
2019-05-13T10:31:13.9616142+10:00:Thread#0:B:  | Telephone                      | 0469347400                          |
2019-05-13T10:31:13.9646160+10:00:Thread#0:B:  | Email                          | sikka.niharika.n@edumail.vic.gov.au |
2019-05-13T10:31:13.9686178+10:00:Thread#0:B:  | Title                          | Mrs                                 |
2019-05-13T10:31:13.9716201+10:00:Thread#0:B:  | Given Name                     | Niharika                            |
2019-05-13T10:31:13.9746237+10:00:Thread#0:B:  | Family Name                    | Sikka                               |
2019-05-13T10:31:13.9786246+10:00:Thread#0:B:  | Email Emergency                | niharikasikka@gmail.com             |
2019-05-13T10:31:13.9816269+10:00:Thread#0:B:  | Position                       | System Admin                        |
2019-05-13T10:31:13.9846287+10:00:Thread#0:B:  | Telephone Emergency            | 0469347400                          |
2019-05-13T10:31:13.9876305+10:00:Thread#0:B:  | Mobile                         | 0469347444                          |
2019-05-13T10:31:13.9906332+10:00:Thread#0:B:  | Service operator out of coucil | No                                  |
2019-05-13T10:31:13.9946355+10:00:Thread#0:B:  | Company by guarantee           | Yes                                 |
2019-05-13T10:31:13.9976377+10:00:Thread#0:B:  | Nature of education            | Preschool/Kindergarten              |
2019-05-13T10:31:14.0006396+10:00:Thread#0:B:  | Quality Rating                 | Excellent                           |
2019-05-13T10:31:14.0036418+10:00:Thread#0:B:  | Only program                   | Yes                                 |
2019-05-13T10:31:23.3530098+10:00:Thread#0:T:done: SmokeKimSteps.WhenIAddANewServiceAndFillInDetailsAndSubmit(<table>) (9.3s)
2019-05-13T10:31:23.3600157+10:00:Thread#0:B:And I go to manage job url and run the services batch job
2019-05-13T10:31:23.3639992+10:00:Thread#0:T:done: SmokeKimSteps.WhenIGoToManageJobUrlAndRunTheServicesBatchJob() (0.0s)
2019-05-13T10:31:23.3690207+10:00:Thread#0:B:When I login to Kim crm and search for added service
2019-05-13T10:31:23.3730051+10:00:Thread#0:T:done: SmokeKimSteps.WhenILoginToKimCrmAndSearchForAddedService() (0.0s)
2019-05-13T10:31:23.3770266+10:00:Thread#0:B:And I enter missing data
2019-05-13T10:31:23.3800293+10:00:Thread#0:T:done: SmokeKimSteps.WhenIEnterMissingData() (0.0s)
2019-05-13T10:31:23.3860133+10:00:Thread#0:B:And I complete the pending tasks and approve
2019-05-13T10:31:23.3900356+10:00:Thread#0:T:done: SmokeKimSteps.WhenICompleteThePendingTasksAndApprove() (0.0s)
2019-05-13T10:31:23.3940383+10:00:Thread#0:B:And I go to manage jobs to run the messages batch job
2019-05-13T10:31:23.3980428+10:00:Thread#0:T:done: SmokeKimSteps.WhenIGoToManageJobsToRunTheMessagesBatchJob() (0.0s)
2019-05-13T10:31:23.4020447+10:00:Thread#0:B:Then I verify the service is added successfully to the organisation in Kim sharepoint
2019-05-13T10:31:23.4060456+10:00:Thread#0:T:done: SmokeKimSteps.ThenIVerifyTheServiceIsAddedSuccessfullyToTheOrganisationInKimSharepoint() (0.0s)
2019-05-13T10:31:23.4090479+10:00:Thread#0:B:And I add teachers, other educators, programs and enrolments for YBSK
2019-05-13T10:31:23.4120506+10:00:Thread#0:T:done: SmokeKimSteps.ThenIAddTeachersOtherEducatorsProgramsAndEnrolmentsForYBSK() (0.0s)
2019-05-13T10:31:23.4170533+10:00:Thread#0:B:And I go to manage jobs url and run the appropriate job
2019-05-13T10:31:23.4210569+10:00:Thread#0:T:done: SmokeKimSteps.ThenIGoToManageJobsUrlAndRunTheAppropriateJob() (0.0s)
2019-05-13T10:31:23.4250529+10:00:Thread#0:B:And I verify the data in Kim crm and apporve
2019-05-13T10:31:23.4290619+10:00:Thread#0:T:done: SmokeKimSteps.ThenIVerifyTheDataInKimCrmAndApporve() (0.0s)
2019-05-13T10:31:23.4340436+10:00:Thread#0:B:And I verify the annual confirmation in Kim sharepoint
2019-05-13T10:31:25.8627868+10:00:Thread#0:T:done: SmokeKimSteps.ThenIVerifyTheAnnualConfirmationInKimSharepoint() (2.4s)
2019-05-13T10:31:25.8868227+10:00:Thread#0:Scheduler: get next test for thread 0
2019-05-13T10:31:25.8868227+10:00:Thread#:Scheduler: at the end of normal test queue
2019-05-13T10:31:25.8868227+10:00:Thread#0:Scheduler: enumerator for thread is at end
2019-05-13T10:31:25.8868227+10:00:Thread#0:Scheduler: No more tests for thread
2019-05-13T10:31:25.9078176+10:00:Thread#0: Test #4/0 is finished on thread #0 as Succeeded within 79.4086742 seconds
2019-05-13T10:31:25.9408616+10:00:Appdomain Disposed
2019-05-13T10:31:25.9428398+10:00:Trying to cancel thread
2019-05-13T10:31:25.9428398+10:00:Thread cancelled
2019-05-13T10:31:25.9518680+10:00:Thread#-1:Scheduler: get next test for thread -1
2019-05-13T10:31:25.9518680+10:00:Thread#:Scheduler: at the end of normal test queue
2019-05-13T10:31:25.9518680+10:00:Thread#-1:Scheduler: enumerator for thread is at end
2019-05-13T10:31:25.9538694+10:00;Thread#13;Info;test run finished
2019-05-13T10:31:25.9548484+10:00;Thread#13;Info;publishing test results
2019-05-13T10:31:25.9608743+10:00;Thread#13;Info;test results published
2019-05-13T10:31:25.9608743+10:00;Thread#13;Info;generating reports
2019-05-13T10:31:26.1623837+10:00;Thread#13;Info;Starting external report generation process
2019-05-13T10:31:29.6670977+10:00;Thread#13;Info;Successfully generated reports.
2019-05-13T10:31:29.6701013+10:00;Thread#13;Info;Successfully generated reports
2019-05-13T10:31:29.6841095+10:00:Total: 1
2019-05-13T10:31:29.6871131+10:00:Succeeded: 1
2019-05-13T10:31:29.6881131+10:00:Ignored: 0
2019-05-13T10:31:29.6891140+10:00:Pending: 0
2019-05-13T10:31:29.6891140+10:00:Skipped: 0
2019-05-13T10:31:29.6901149+10:00:Failed: 0
2019-05-13T10:31:29.7101271+10:00;VSTestExecutionThread;Info;Adding attachments to VSTest
2019-05-13T10:31:29.7101271+10:00;VSTestExecutionThread;Info;adding Test Execution Report 'C:\Users\09946103\Downloads\kim_automation\TestResults\KIM_Automation_KIM_Automation_2019-05-13T102957.html'
========== End of log file ==========
