﻿2019-05-16T15:08:16.2641422+10:00;VSTestExecutionThread;Info;SpecFlow+Runner execution started
2019-05-16T15:08:16.2641422+10:00;VSTestExecutionThread;Info;SpecFlow+Runner 3.0.337 in Framework clr40 in x86 mode execution started
2019-05-16T15:08:16.2641422+10:00;VSTestExecutionThread;Info;TestAdapter Location: C:\Users\09946103\Downloads\kim_automation\packages\SpecRun.Runner.3.0.337\tools\net45\TechTalk.SpecRun.VisualStudio.TestAdapter.dll
2019-05-16T15:08:16.3889618+10:00;VSTestExecutionThread;Info;SpecRun: running tests in C:\Users\09946103\Downloads\kim_automation\KIM_Automation\bin\Debug\KIM_Automation.dll
2019-05-16T15:08:16.3899631+10:00;VSTestExecutionThread;Info;Output folder configured to "C:\Users\09946103\Downloads\kim_automation\TestResults" (default)
2019-05-16T15:08:16.3899631+10:00;VSTestExecutionThread;Info;Profile: KIM_Automation
2019-05-16T15:08:16.4170009+10:00;VSTestExecutionThread;Info;Log file path: C:\Users\09946103\Downloads\kim_automation\TestResults\KIM_Automation_KIM_Automation_2019-05-16T150816.log
2019-05-16T15:08:16.4270071+10:00;VSTestExecutionThread;Info;SpecFlow+Runner Evaluation Mode: Please purchase at http://www.specflow.org/plus to remove test execution delay.
2019-05-16T15:08:16.4349924+10:00;Thread#13;Info;Checking license
2019-05-16T15:08:16.4530249+10:00;Thread#13;Info;Evaluation mode: test execution starts in 12 seconds... (this delay is removed in the registered version)
2019-05-16T15:08:28.4532516+10:00;Thread#13;Info;Evaluation delay finished.
2019-05-16T15:08:28.4692604+10:00;Thread#13;Info;License check completed
2019-05-16T15:08:28.4702613+10:00;Thread#13;Info;starting test run
2019-05-16T15:08:28.4882728+10:00;Thread#13;Info;Discovering target: Default
2019-05-16T15:08:28.4882728+10:00;Thread#13;Info;Discovering tests from assembly: C:\Users\09946103\Downloads\kim_automation\KIM_Automation\bin\Debug\KIM_Automation.dll
2019-05-16T15:08:29.3031420+10:00:Appdomain Disposed
2019-05-16T15:08:29.3031420+10:00;Thread#13;Info;Discovered tests from assembly: C:\Users\09946103\Downloads\kim_automation\KIM_Automation\bin\Debug\KIM_Automation.dll
2019-05-16T15:08:29.3041438+10:00:Test Suite Dump
2019-05-16T15:08:29.3061456+10:00:#0: KIM_Automation/KIM_Automation - 
2019-05-16T15:08:29.3061456+10:00:#1: Default - 
2019-05-16T15:08:29.3061456+10:00:#2: KIM_Automation - 
2019-05-16T15:08:29.3061456+10:00:#3: Smoke Test - 
2019-05-16T15:08:29.3707004+10:00:#4: KIM end to end scenario - TestAssembly:KIM_Automation/Feature:Smoke+Test/Scenario:KIM+end+to+end+scenario
2019-05-16T15:08:29.3707004+10:00:End: Test Suite Dump
2019-05-16T15:08:29.3997199+10:00:Thread#0:Scheduler: get next test for thread 0
2019-05-16T15:08:29.4027203+10:00:Thread#:Scheduler: testitem #4 from normal test queue 
2019-05-16T15:08:29.4027203+10:00:Thread#0:Scheduler: considering testitem #4 for thread 0
2019-05-16T15:08:29.4077239+10:00:Thread#0:TestItem#4:testItemMatchesCurrentTestThread:UnSpecific
2019-05-16T15:08:29.4077239+10:00:Thread#0:TestItem#4:runsOnOneOtherThreadSpecific:False
2019-05-16T15:08:29.4077239+10:00:Thread#0:TestItem#4:runsOnOneOtherThreadUnspecific:False
2019-05-16T15:08:29.4077239+10:00:Thread#0:Scheduler: using testitem #4 for thread 0
2019-05-16T15:08:29.4097252+10:00:Thread#0:Scheduler: Test #4 is scheduled for thread
2019-05-16T15:08:29.4107261+10:00:Thread#0:Scheduler: with testItemExecutionIndex 0
2019-05-16T15:08:29.4137274+10:00:Thread #0: creating new test thread executor for KIM_Automation, Version=1.0.0.0, Culture=neutral, PublicKeyToken=null (target: Default)
2019-05-16T15:08:29.4157310+10:00:Thread #0: Creating test assembly executor for execution model AppDomain
2019-05-16T15:08:29.4167310+10:00:Thread #0: Creating test assembly executor for execution model AppDomain
2019-05-16T15:08:29.4167310+10:00:using TechTalk.SpecRun.Framework.Execution.InProcess.InProcAppDomainTestAssemblyExecutorHost to execute tests
2019-05-16T15:08:29.6037016+10:00:Thread#0: Test #4/0 is started on thread #0
2019-05-16T15:08:29.9112339+10:00:Thread#0:T:-> Loading plugin C:\Users\09946103\Downloads\kim_automation\KIM_Automation\bin\Debug\SpecRun.Runtime.SpecFlowPlugin.dll
2019-05-16T15:08:29.9192401+10:00:Thread#0:T:-> Using default config
2019-05-16T15:08:29.9802608+10:00:Thread#0:B:Given I navigate to Kim sharepoint aplication homepage
2019-05-16T15:08:40.4640574+10:00:Thread#0:T:done: SmokeKimSteps.GivenINavigateToKimSharepointAplicationHomepage() (10.3s)
2019-05-16T15:08:40.4660583+10:00:Thread#0:B:And I login using internal username and password
2019-05-16T15:08:46.0460887+10:00:Thread#0:T:error: Unable to find element with css selector == #username
2019-05-16T15:08:46.0470896+10:00:Thread#0:B:When I press login button
2019-05-16T15:08:46.0470896+10:00:Thread#0:T:skipped because of previous errors
2019-05-16T15:08:46.0470896+10:00:Thread#0:B:And I am logged in successfully
2019-05-16T15:08:46.0480901+10:00:Thread#0:T:skipped because of previous errors
2019-05-16T15:08:46.0480901+10:00:Thread#0:B:And I click on service providers
2019-05-16T15:08:46.0480901+10:00:Thread#0:T:skipped because of previous errors
2019-05-16T15:08:46.0480901+10:00:Thread#0:B:And I search for an organisation and click on it
2019-05-16T15:08:46.0490887+10:00:Thread#0:T:skipped because of previous errors
2019-05-16T15:08:46.0561137+10:00:Thread#0:B:And I add a new service and fill in details and submit
2019-05-16T15:08:46.0561137+10:00:Thread#0:B:  --- table step argument ---
2019-05-16T15:08:46.0561137+10:00:Thread#0:B:  | Service Name             | Date Commence | Unit Number | Street        | Street Type | Suburb   | State | Postcode | LGA Code         | Telephone  | Email                               | Title Emergency | Given Name Emergency | Family Name Emergency | Email Emergency         | Position Emergency | Telephone Emergency | Mobile Emergency | Quality Rating |
2019-05-16T15:08:46.0561137+10:00:Thread#0:B:  | Moonee Kids Kindergarten | 01/06/2019    | 2           | Hoddle Street | ALLEY       | Essendon | VIC   | 3040     | Alpine (S) 20110 | 0469347402 | sikka.niharika.n@edumail.vic.gov.au | Mrs             | Niharika             | Sikka                 | niharikasikka@gmail.com | System Admin       | 0469347402          | 0469347402       | Excellent      |
2019-05-16T15:08:46.0591150+10:00:Thread#0:T:skipped because of previous errors
2019-05-16T15:08:46.0591150+10:00:Thread#0:B:And I logout of Kim sharepoint
2019-05-16T15:08:46.0591150+10:00:Thread#0:T:skipped because of previous errors
2019-05-16T15:08:46.0591150+10:00:Thread#0:B:And I go to manage job url and run the services batch job
2019-05-16T15:08:46.0600967+10:00:Thread#0:T:skipped because of previous errors
2019-05-16T15:08:46.0600967+10:00:Thread#0:B:And I logout of manage jobs
2019-05-16T15:08:46.0600967+10:00:Thread#0:T:skipped because of previous errors
2019-05-16T15:08:46.0600967+10:00:Thread#0:B:When I login to Kim crm and search for added service
2019-05-16T15:08:46.0600967+10:00:Thread#0:T:skipped because of previous errors
2019-05-16T15:08:46.0600967+10:00:Thread#0:B:And I enter missing data
2019-05-16T15:08:46.0610971+10:00:Thread#0:T:skipped because of previous errors
2019-05-16T15:08:46.0610971+10:00:Thread#0:B:And I complete the pending tasks and approve
2019-05-16T15:08:46.0610971+10:00:Thread#0:T:skipped because of previous errors
2019-05-16T15:08:46.0610971+10:00:Thread#0:B:And I logout of Kim crm
2019-05-16T15:08:46.0610971+10:00:Thread#0:T:skipped because of previous errors
2019-05-16T15:08:46.0610971+10:00:Thread#0:B:And I go to manage jobs to run the messages batch job
2019-05-16T15:08:46.0620976+10:00:Thread#0:T:skipped because of previous errors
2019-05-16T15:08:46.0620976+10:00:Thread#0:B:And I logout of manage jobs
2019-05-16T15:08:46.0620976+10:00:Thread#0:T:skipped because of previous errors
2019-05-16T15:08:46.0620976+10:00:Thread#0:B:Then I verify the service is added successfully to the organisation in Kim sharepoint
2019-05-16T15:08:46.0630989+10:00:Thread#0:T:skipped because of previous errors
2019-05-16T15:08:46.0630989+10:00:Thread#0:B:And I add teachers, other educators, programs and enrolments for YBSK
2019-05-16T15:08:46.0630989+10:00:Thread#0:T:skipped because of previous errors
2019-05-16T15:08:46.0630989+10:00:Thread#0:B:And I go to manage jobs url and run the appropriate job
2019-05-16T15:08:46.0630989+10:00:Thread#0:T:skipped because of previous errors
2019-05-16T15:08:46.0640985+10:00:Thread#0:B:And I logout of manage jobs
2019-05-16T15:08:46.0640985+10:00:Thread#0:T:skipped because of previous errors
2019-05-16T15:08:46.0640985+10:00:Thread#0:B:And I verify the data in Kim crm and apporve
2019-05-16T15:08:46.0640985+10:00:Thread#0:T:skipped because of previous errors
2019-05-16T15:08:46.0640985+10:00:Thread#0:B:And I logout of Kim crm
2019-05-16T15:08:46.0650993+10:00:Thread#0:T:skipped because of previous errors
2019-05-16T15:08:46.0650993+10:00:Thread#0:B:And I verify the annual confirmation in Kim sharepoint
2019-05-16T15:08:46.0691212+10:00:Thread#0:T:skipped because of previous errors
2019-05-16T15:08:46.1231392+10:00:Thread#0:TestItem#4:Scheduler: reschedule tests for testitem #4
2019-05-16T15:08:46.1231392+10:00:Thread#0:Scheduler: get next test for thread 0
2019-05-16T15:08:46.1231392+10:00:Thread#:Scheduler: dequeuing a rescheduled testitem: #4
2019-05-16T15:08:46.1231392+10:00:Thread#0:Scheduler: considering testitem #4 for thread 0
2019-05-16T15:08:46.1241401+10:00:Thread#0:TestItem#4:testItemMatchesCurrentTestThread:UnSpecific
2019-05-16T15:08:46.1241401+10:00:Thread#0:TestItem#4:runsOnOneOtherThreadSpecific:False
2019-05-16T15:08:46.1241401+10:00:Thread#0:TestItem#4:runsOnOneOtherThreadUnspecific:False
2019-05-16T15:08:46.1241401+10:00:Thread#0:Scheduler: using testitem #4 for thread 0
2019-05-16T15:08:46.1241401+10:00:Thread#0:Scheduler: Test #4 is scheduled for thread
2019-05-16T15:08:46.1241401+10:00:Thread#0:Scheduler: with testItemExecutionIndex 1
2019-05-16T15:08:46.1381677+10:00:Thread#0: Test #4/0 is finished on thread #0 as Failed within 16.5334657 seconds
2019-05-16T15:08:46.1401686+10:00:Thread#0: Test #4/1 is started on thread #0
2019-05-16T15:08:46.1411490+10:00:Thread#0:B:Given I navigate to Kim sharepoint aplication homepage
2019-05-16T15:08:55.7887980+10:00:Thread#0:T:done: SmokeKimSteps.GivenINavigateToKimSharepointAplicationHomepage() (9.6s)
2019-05-16T15:08:55.7887980+10:00:Thread#0:B:And I login using internal username and password
2019-05-16T15:09:01.2024579+10:00:Thread#0:T:error: Unable to find element with css selector == #username
2019-05-16T15:09:01.2034655+10:00:Thread#0:B:When I press login button
2019-05-16T15:09:01.2034655+10:00:Thread#0:T:skipped because of previous errors
2019-05-16T15:09:01.2044691+10:00:Thread#0:B:And I am logged in successfully
2019-05-16T15:09:01.2054878+10:00:Thread#0:T:skipped because of previous errors
2019-05-16T15:09:01.2054878+10:00:Thread#0:B:And I click on service providers
2019-05-16T15:09:01.2064660+10:00:Thread#0:T:skipped because of previous errors
2019-05-16T15:09:01.2074892+10:00:Thread#0:B:And I search for an organisation and click on it
2019-05-16T15:09:01.2074892+10:00:Thread#0:T:skipped because of previous errors
2019-05-16T15:09:01.2084682+10:00:Thread#0:B:And I add a new service and fill in details and submit
2019-05-16T15:09:01.2094655+10:00:Thread#0:B:  --- table step argument ---
2019-05-16T15:09:01.2094655+10:00:Thread#0:B:  | Service Name             | Date Commence | Unit Number | Street        | Street Type | Suburb   | State | Postcode | LGA Code         | Telephone  | Email                               | Title Emergency | Given Name Emergency | Family Name Emergency | Email Emergency         | Position Emergency | Telephone Emergency | Mobile Emergency | Quality Rating |
2019-05-16T15:09:01.2104686+10:00:Thread#0:B:  | Moonee Kids Kindergarten | 01/06/2019    | 2           | Hoddle Street | ALLEY       | Essendon | VIC   | 3040     | Alpine (S) 20110 | 0469347402 | sikka.niharika.n@edumail.vic.gov.au | Mrs             | Niharika             | Sikka                 | niharikasikka@gmail.com | System Admin       | 0469347402          | 0469347402       | Excellent      |
2019-05-16T15:09:01.2114927+10:00:Thread#0:T:skipped because of previous errors
2019-05-16T15:09:01.2114927+10:00:Thread#0:B:And I logout of Kim sharepoint
2019-05-16T15:09:01.2114927+10:00:Thread#0:T:skipped because of previous errors
2019-05-16T15:09:01.2124927+10:00:Thread#0:B:And I go to manage job url and run the services batch job
2019-05-16T15:09:01.2124927+10:00:Thread#0:T:skipped because of previous errors
2019-05-16T15:09:01.2134708+10:00:Thread#0:B:And I logout of manage jobs
2019-05-16T15:09:01.2134708+10:00:Thread#0:T:skipped because of previous errors
2019-05-16T15:09:01.2144722+10:00:Thread#0:B:When I login to Kim crm and search for added service
2019-05-16T15:09:01.2144722+10:00:Thread#0:T:skipped because of previous errors
2019-05-16T15:09:01.2154664+10:00:Thread#0:B:And I enter missing data
2019-05-16T15:09:01.2164735+10:00:Thread#0:T:skipped because of previous errors
2019-05-16T15:09:01.2164735+10:00:Thread#0:B:And I complete the pending tasks and approve
2019-05-16T15:09:01.2174673+10:00:Thread#0:T:skipped because of previous errors
2019-05-16T15:09:01.2174673+10:00:Thread#0:B:And I logout of Kim crm
2019-05-16T15:09:01.2184708+10:00:Thread#0:T:skipped because of previous errors
2019-05-16T15:09:01.2184708+10:00:Thread#0:B:And I go to manage jobs to run the messages batch job
2019-05-16T15:09:01.2194695+10:00:Thread#0:T:skipped because of previous errors
2019-05-16T15:09:01.2194695+10:00:Thread#0:B:And I logout of manage jobs
2019-05-16T15:09:01.2194695+10:00:Thread#0:T:skipped because of previous errors
2019-05-16T15:09:01.2204802+10:00:Thread#0:B:Then I verify the service is added successfully to the organisation in Kim sharepoint
2019-05-16T15:09:01.2204802+10:00:Thread#0:T:skipped because of previous errors
2019-05-16T15:09:01.2204802+10:00:Thread#0:B:And I add teachers, other educators, programs and enrolments for YBSK
2019-05-16T15:09:01.2204802+10:00:Thread#0:T:skipped because of previous errors
2019-05-16T15:09:01.2214713+10:00:Thread#0:B:And I go to manage jobs url and run the appropriate job
2019-05-16T15:09:01.2214713+10:00:Thread#0:T:skipped because of previous errors
2019-05-16T15:09:01.2214713+10:00:Thread#0:B:And I logout of manage jobs
2019-05-16T15:09:01.2214713+10:00:Thread#0:T:skipped because of previous errors
2019-05-16T15:09:01.2224726+10:00:Thread#0:B:And I verify the data in Kim crm and apporve
2019-05-16T15:09:01.2224726+10:00:Thread#0:T:skipped because of previous errors
2019-05-16T15:09:01.2224726+10:00:Thread#0:B:And I logout of Kim crm
2019-05-16T15:09:01.2264909+10:00:Thread#0:T:skipped because of previous errors
2019-05-16T15:09:01.2264909+10:00:Thread#0:B:And I verify the annual confirmation in Kim sharepoint
2019-05-16T15:09:01.2264909+10:00:Thread#0:T:skipped because of previous errors
2019-05-16T15:09:01.2284922+10:00:Thread#0:Scheduler: get next test for thread 0
2019-05-16T15:09:01.2284922+10:00:Thread#:Scheduler: dequeuing a rescheduled testitem: #4
2019-05-16T15:09:01.2284922+10:00:Thread#0:Scheduler: considering testitem #4 for thread 0
2019-05-16T15:09:01.2284922+10:00:Thread#0:TestItem#4:testItemMatchesCurrentTestThread:UnSpecific
2019-05-16T15:09:01.2284922+10:00:Thread#0:TestItem#4:runsOnOneOtherThreadSpecific:False
2019-05-16T15:09:01.2284922+10:00:Thread#0:TestItem#4:runsOnOneOtherThreadUnspecific:False
2019-05-16T15:09:01.2284922+10:00:Thread#0:Scheduler: using testitem #4 for thread 0
2019-05-16T15:09:01.2284922+10:00:Thread#0:Scheduler: Test #4 is scheduled for thread
2019-05-16T15:09:01.2284922+10:00:Thread#0:Scheduler: with testItemExecutionIndex 2
2019-05-16T15:09:01.2294931+10:00:Thread#0: Test #4/1 is finished on thread #0 as Failed within 15.0893245 seconds
2019-05-16T15:09:01.2294931+10:00:Thread#0: Test #4/2 is started on thread #0
2019-05-16T15:09:01.2304779+10:00:Thread#0:B:Given I navigate to Kim sharepoint aplication homepage
2019-05-16T15:09:10.6257305+10:00:Thread#0:T:done: SmokeKimSteps.GivenINavigateToKimSharepointAplicationHomepage() (9.4s)
2019-05-16T15:09:10.6257305+10:00:Thread#0:B:And I login using internal username and password
2019-05-16T15:09:16.1364185+10:00:Thread#0:T:error: Unable to find element with css selector == #username
2019-05-16T15:09:16.1364185+10:00:Thread#0:B:When I press login button
2019-05-16T15:09:16.1374203+10:00:Thread#0:T:skipped because of previous errors
2019-05-16T15:09:16.1374203+10:00:Thread#0:B:And I am logged in successfully
2019-05-16T15:09:16.1384199+10:00:Thread#0:T:skipped because of previous errors
2019-05-16T15:09:16.1384199+10:00:Thread#0:B:And I click on service providers
2019-05-16T15:09:16.1394207+10:00:Thread#0:T:skipped because of previous errors
2019-05-16T15:09:16.1394207+10:00:Thread#0:B:And I search for an organisation and click on it
2019-05-16T15:09:16.1394207+10:00:Thread#0:T:skipped because of previous errors
2019-05-16T15:09:16.1404212+10:00:Thread#0:B:And I add a new service and fill in details and submit
2019-05-16T15:09:16.1404212+10:00:Thread#0:B:  --- table step argument ---
2019-05-16T15:09:16.1404212+10:00:Thread#0:B:  | Service Name             | Date Commence | Unit Number | Street        | Street Type | Suburb   | State | Postcode | LGA Code         | Telephone  | Email                               | Title Emergency | Given Name Emergency | Family Name Emergency | Email Emergency         | Position Emergency | Telephone Emergency | Mobile Emergency | Quality Rating |
2019-05-16T15:09:16.1404212+10:00:Thread#0:B:  | Moonee Kids Kindergarten | 01/06/2019    | 2           | Hoddle Street | ALLEY       | Essendon | VIC   | 3040     | Alpine (S) 20110 | 0469347402 | sikka.niharika.n@edumail.vic.gov.au | Mrs             | Niharika             | Sikka                 | niharikasikka@gmail.com | System Admin       | 0469347402          | 0469347402       | Excellent      |
2019-05-16T15:09:16.1414221+10:00:Thread#0:T:skipped because of previous errors
2019-05-16T15:09:16.1414221+10:00:Thread#0:B:And I logout of Kim sharepoint
2019-05-16T15:09:16.1414221+10:00:Thread#0:T:skipped because of previous errors
2019-05-16T15:09:16.1424221+10:00:Thread#0:B:And I go to manage job url and run the services batch job
2019-05-16T15:09:16.1424221+10:00:Thread#0:T:skipped because of previous errors
2019-05-16T15:09:16.1424221+10:00:Thread#0:B:And I logout of manage jobs
2019-05-16T15:09:16.1434230+10:00:Thread#0:T:skipped because of previous errors
2019-05-16T15:09:16.1434230+10:00:Thread#0:B:When I login to Kim crm and search for added service
2019-05-16T15:09:16.1434230+10:00:Thread#0:T:skipped because of previous errors
2019-05-16T15:09:16.1444238+10:00:Thread#0:B:And I enter missing data
2019-05-16T15:09:16.1444238+10:00:Thread#0:T:skipped because of previous errors
2019-05-16T15:09:16.1444238+10:00:Thread#0:B:And I complete the pending tasks and approve
2019-05-16T15:09:16.1454247+10:00:Thread#0:T:skipped because of previous errors
2019-05-16T15:09:16.1454247+10:00:Thread#0:B:And I logout of Kim crm
2019-05-16T15:09:16.1454247+10:00:Thread#0:T:skipped because of previous errors
2019-05-16T15:09:16.1474252+10:00:Thread#0:B:And I go to manage jobs to run the messages batch job
2019-05-16T15:09:16.1474252+10:00:Thread#0:T:skipped because of previous errors
2019-05-16T15:09:16.1474252+10:00:Thread#0:B:And I logout of manage jobs
2019-05-16T15:09:16.1484261+10:00:Thread#0:T:skipped because of previous errors
2019-05-16T15:09:16.1484261+10:00:Thread#0:B:Then I verify the service is added successfully to the organisation in Kim sharepoint
2019-05-16T15:09:16.1494265+10:00:Thread#0:T:skipped because of previous errors
2019-05-16T15:09:16.1544390+10:00:Thread#0:B:And I add teachers, other educators, programs and enrolments for YBSK
2019-05-16T15:09:16.1544390+10:00:Thread#0:T:skipped because of previous errors
2019-05-16T15:09:16.1554323+10:00:Thread#0:B:And I go to manage jobs url and run the appropriate job
2019-05-16T15:09:16.1554323+10:00:Thread#0:T:skipped because of previous errors
2019-05-16T15:09:16.1564323+10:00:Thread#0:B:And I logout of manage jobs
2019-05-16T15:09:16.1564323+10:00:Thread#0:T:skipped because of previous errors
2019-05-16T15:09:16.1564323+10:00:Thread#0:B:And I verify the data in Kim crm and apporve
2019-05-16T15:09:16.1574323+10:00:Thread#0:T:skipped because of previous errors
2019-05-16T15:09:16.1574323+10:00:Thread#0:B:And I logout of Kim crm
2019-05-16T15:09:16.1574323+10:00:Thread#0:T:skipped because of previous errors
2019-05-16T15:09:16.1584332+10:00:Thread#0:B:And I verify the annual confirmation in Kim sharepoint
2019-05-16T15:09:16.1584332+10:00:Thread#0:T:skipped because of previous errors
2019-05-16T15:09:16.1594336+10:00:Thread#0:Scheduler: get next test for thread 0
2019-05-16T15:09:16.1594336+10:00:Thread#:Scheduler: at the end of normal test queue
2019-05-16T15:09:16.1594336+10:00:Thread#0:Scheduler: enumerator for thread is at end
2019-05-16T15:09:16.1594336+10:00:Thread#0:Scheduler: No more tests for thread
2019-05-16T15:09:16.1644367+10:00:Thread#0: Test #4/2 is finished on thread #0 as Failed within 14.9349436 seconds
2019-05-16T15:09:16.2204744+10:00:Appdomain Disposed
2019-05-16T15:09:16.2234775+10:00:Trying to cancel thread
2019-05-16T15:09:16.2234775+10:00:Thread cancelled
2019-05-16T15:09:16.2404872+10:00:Thread#-1:Scheduler: get next test for thread -1
2019-05-16T15:09:16.2404872+10:00:Thread#:Scheduler: at the end of normal test queue
2019-05-16T15:09:16.2404872+10:00:Thread#-1:Scheduler: enumerator for thread is at end
2019-05-16T15:09:16.2955245+10:00;Thread#13;Info;test run finished
2019-05-16T15:09:16.2955245+10:00;Thread#13;Info;publishing test results
2019-05-16T15:09:16.3095333+10:00;Thread#13;Info;test results published
2019-05-16T15:09:16.3095333+10:00;Thread#13;Info;generating reports
2019-05-16T15:09:16.5907199+10:00;Thread#13;Info;Starting external report generation process
2019-05-16T15:09:20.5846517+10:00;Thread#13;Info;Successfully generated reports.
2019-05-16T15:09:20.5886544+10:00;Thread#13;Info;Successfully generated reports
2019-05-16T15:09:20.6096681+10:00:Total: 1 (test executions: 3)
2019-05-16T15:09:20.6161745+10:00:Succeeded: 0
2019-05-16T15:09:20.6176734+10:00:Ignored: 0
2019-05-16T15:09:20.6191750+10:00:Pending: 0
2019-05-16T15:09:20.6191750+10:00:Skipped: 0
2019-05-16T15:09:20.6201759+10:00:Failed: 1
2019-05-16T15:09:20.6406889+10:00;VSTestExecutionThread;Info;Adding attachments to VSTest
2019-05-16T15:09:20.6406889+10:00;VSTestExecutionThread;Info;adding Test Execution Report 'C:\Users\09946103\Downloads\kim_automation\TestResults\KIM_Automation_KIM_Automation_2019-05-16T150816.html'
========== End of log file ==========
