﻿2019-08-02T10:44:05.6483492+10:00;Thread#1;Info;Reading test run result from Json file "C:\Users\niharikasikka\AppData\Local\Temp\tmpE525.tmp".
2019-08-02T10:44:05.6533461+10:00;Thread#1;Info;Successfully read test run result from Json file "C:\Users\niharikasikka\AppData\Local\Temp\tmpE525.tmp"
2019-08-02T10:44:05.6543472+10:00;Thread#1;Info;Deserializing test run result
2019-08-02T10:44:06.5703464+10:00;Thread#1;Info;Successfully deserialized test run result
2019-08-02T10:44:06.5703464+10:00;Thread#1;Info;Loading test run result
2019-08-02T10:44:06.6093469+10:00;Thread#1;Info;Successfully loaded test run result
2019-08-02T10:44:06.6283490+10:00;Thread#1;Info;creating 1 report(s)
2019-08-02T10:44:06.6283490+10:00;Thread#1;Info;generate Report ReportTemplate.cshtml
2019-08-02T10:44:08.4538322+10:00;Thread#1;Info;Finished generating reports.
========== End of log file ==========
